…
<img src="strings_and_factors_files/figure-gfm/unnamed-chunk-10-1.png" width="90%" />

## Restaurant data

``` r
data("rest_inspec")
```

``` r
rest_inspec %>% 
  slice(1:1000)
```

    ## # A tibble: 1,000 × 18
    ##    action boro  build…¹  camis criti…² cuisi…³ dba   inspection_date     inspe…⁴
    ##    <chr>  <chr> <chr>    <int> <chr>   <chr>   <chr> <dttm>              <chr>  
    ##  1 Viola… MANH… 425     4.15e7 Not Cr… Italian SPIN… 2016-10-05 00:00:00 Cycle …
    ##  2 Viola… MANH… 37      4.12e7 Critic… Korean  SHIL… 2015-07-17 00:00:00 Cycle …
    ##  3 Viola… MANH… 15      4.11e7 Not Cr… CafÃ©/… CITY… 2017-03-06 00:00:00 Admini…
    ##  4 Viola… MANH… 35      4.13e7 Critic… Korean  MADA… 2015-01-29 00:00:00 Cycle …
    ##  5 Viola… MANH… 1271    5.00e7 Critic… Americ… THE … 2014-11-13 00:00:00 Pre-pe…
    ##  6 Viola… MANH… 155     5.00e7 Not Cr… Donuts  DUNK… 2016-11-28 00:00:00 Cycle …
    ##  7 Viola… MANH… 1164    5.00e7 Critic… Salads  SWEE… 2015-03-12 00:00:00 Cycle …
    ##  8 Viola… MANH… 37      4.12e7 Not Cr… Korean  SHIL… 2016-01-22 00:00:00 Cycle …
    ##  9 Viola… MANH… 299     5.01e7 Not Cr… Americ… PRET… 2017-08-28 00:00:00 Calori…
    ## 10 Viola… MANH… 53      4.04e7 Not Cr… Korean  HAN … 2016-05-10 00:00:00 Cycle …
    ## # … with 990 more rows, 9 more variables: phone <chr>, record_date <dttm>,
    ## #   score <int>, street <chr>, violation_code <chr>,
    ## #   violation_description <chr>, zipcode <int>, grade <chr>, grade_date <dttm>,
    ## #   and abbreviated variable names ¹​building, ²​critical_flag,
    ## #   ³​cuisine_description, ⁴​inspection_type
…
